TwitteR and tidytext Packages
…
## # A tibble: 6 x 4
##   id                 source created             word       
##   <chr>              <chr>  <dttm>              <chr>      
## 1 936555753946705920 iPhone 2017-12-01 11:21:06 republicans
## 2 936555753946705920 iPhone 2017-12-01 11:21:06 senators   
## 3 936555753946705920 iPhone 2017-12-01 11:21:06 hard       
## 4 936555753946705920 iPhone 2017-12-01 11:21:06 pass       
## 5 936555753946705920 iPhone 2017-12-01 11:21:06 biggest    
## 6 936555753946705920 iPhone 2017-12-01 11:21:06 tax

We can use the sentiment data set from the tidytext library to sort the words by sentiment.

sentiments

## # A tibble: 27,314 x 4
##    word        sentiment lexicon score
##    <chr>       <chr>     <chr>   <int>
##  1 abacus      trust     nrc        NA
##  2 abandon     fear      nrc        NA
##  3 abandon     negative  nrc        NA
##  4 abandon     sadness   nrc        NA
##  5 abandoned   anger     nrc        NA
##  6 abandoned   fear      nrc        NA
##  7 abandoned   negative  nrc        NA
##  8 abandoned   sadness   nrc        NA
##  9 abandonment anger     nrc        NA
## 10 abandonment fear      nrc        NA
## # ... with 27,304 more rows
…
